Final Project
…
Bringing in Data

Here we are bringing in our data set with the read_excel funtion through the readxl package which we configured and edited to run in R

pulliam_proj <- read_excel("../data/project_raw_data.xlsx")

pulliam_proj

# A tibble: 304 × 13
   Date                  Day  Plot   Trt   Rep `NH3 Conc.` `NO3 + NH3 Conc.`
   <dttm>              <dbl> <dbl> <dbl> <dbl>       <dbl>             <dbl>
 1 2023-10-04 00:00:00     0   101     1     1       0.416              4.12
 2 2023-10-04 00:00:00     0   201     1     2       0.846              6.52
 3 2023-10-04 00:00:00     0   301     1     3       0.529              4.59
 4 2023-10-04 00:00:00     0   401     1     4       0.416              3.16
 5 2023-10-04 00:00:00     0   102     2     1       0.524              5.00
 6 2023-10-04 00:00:00     0   202     2     2       0.672              4.58
 7 2023-10-04 00:00:00     0   302     2     3       0.435              3.54
 8 2023-10-04 00:00:00     0   402     2     4       0.570              6.34
 9 2023-10-04 00:00:00     0   103     3     1       0.347              3.98
10 2023-10-04 00:00:00     0   203     3     2       0.492              4.64
# ℹ 294 more rows
# ℹ 6 more variables: `NO3 Conc.` <dbl>, `L KCl` <dbl>,
#   `kg air dry soil` <dbl>, `mg/kg NH3` <dbl>, `mg/kg TIN` <dbl>,
#   `mg/kg NO3` <dbl>
…
pulliam_proj_w <- pulliam_proj_clean %>%
  mutate(rep = factor(rep),
         date = factor(date),
         day = factor(day),
         trt = factor(trt),
         plot = factor(plot)
         )# %>%
 # mutate(trtname = paste0(,"+",))

#interested in mean effects so we changed variables to be viewed as factors 

pulliam_proj_w

# A tibble: 304 × 13
   date       day   plot  trt   rep   nh3_conc no3_nh3_conc no3_conc l_k_cl
   <fct>      <fct> <fct> <fct> <fct>    <dbl>        <dbl>    <dbl>  <dbl>
 1 2023-10-04 0     101   1     1        0.416         4.12     3.70   0.04
 2 2023-10-04 0     201   1     2        0.846         6.52     5.68   0.04
 3 2023-10-04 0     301   1     3        0.529         4.59     4.06   0.04
 4 2023-10-04 0     401   1     4        0.416         3.16     2.75   0.04
 5 2023-10-04 0     102   2     1        0.524         5.00     4.48   0.04
 6 2023-10-04 0     202   2     2        0.672         4.58     3.91   0.04
 7 2023-10-04 0     302   2     3        0.435         3.54     3.10   0.04
 8 2023-10-04 0     402   2     4        0.570         6.34     5.77   0.04
 9 2023-10-04 0     103   3     1        0.347         3.98     3.63   0.04
10 2023-10-04 0     203   3     2        0.492         4.64     4.15   0.04
# ℹ 294 more rows
# ℹ 4 more variables: kg_air_dry_soil <dbl>, mg_kg_nh3 <dbl>, mg_kg_tin <dbl>,
#   mg_kg_no3 <dbl>
…
Linear Model Assumptions

Extracting residuals

Here we are extracting residuals to begin chekcing normality

library(broom.mixed)
pulliam_proj_mix_resid <- augment(pulliam_proj_mod) %>%
  mutate(.studresid=rstudent(pulliam_proj_mod))

pulliam_proj_mix_resid

# A tibble: 304 × 16
   mg_kg_tin trt   day   rep   .fitted  .resid  .hat   .cooksd .fixed   .mu
       <dbl> <fct> <fct> <fct>   <dbl>   <dbl> <dbl>     <dbl>  <dbl> <dbl>
 1      32.9 1     0     1        36.7  -3.81  0.258 0.00179     36.8  36.7
 2      52.2 1     0     2        38.7  13.5   0.258 0.0225      36.8  38.7
 3      36.7 1     0     3        36.2   0.523 0.258 0.0000338   36.8  36.2
 4      25.3 1     0     4        35.5 -10.2   0.258 0.0129      36.8  35.5
 5      40.0 2     0     1        38.9   1.13  0.258 0.000157    38.9  38.9
 6      36.6 2     0     2        40.8  -4.20  0.258 0.00219     38.9  40.8
 7      28.3 2     0     3        38.3 -10.0   0.258 0.0124      38.9  38.3
 8      50.7 2     0     4        37.6  13.1   0.258 0.0213      38.9  37.6
 9      31.8 3     0     1        35.5  -3.67  0.258 0.00167     35.5  35.5
10      37.1 3     0     2        37.4  -0.327 0.258 0.0000133   35.5  37.4
# ℹ 294 more rows
# ℹ 6 more variables: .offset <dbl>, .sqrtXwt <dbl>, .sqrtrwt <dbl>,
#   .weights <dbl>, .wtres <dbl>, .studresid <dbl>
…
